<?xml version="1.0" encoding="UTF-8"?>
<svg width="46" height="46" viewBox="0 0 46 46" fill="none" xmlns="http://www.w3.org/2000/svg">
<path d="M23.5028 16.0903C19.9557 16.0903 17.0945 18.9521 17.0945 22.5C17.0945 26.0479 19.9557 28.9097 23.5028 28.9097C27.0499 28.9097 29.911 26.0479 29.911 22.5C29.911 18.9521 27.0499 16.0903 23.5028 16.0903ZM23.5028 26.6671C21.2105 26.6671 19.3366 24.7983 19.3366 22.5C19.3366 20.2017 21.205 18.3329 23.5028 18.3329C25.8006 18.3329 27.669 20.2017 27.669 22.5C27.669 24.7983 25.795 26.6671 23.5028 26.6671ZM31.6679 15.8281C31.6679 16.6593 30.9986 17.3232 30.1732 17.3232C29.3422 17.3232 28.6785 16.6537 28.6785 15.8281C28.6785 15.0025 29.3477 14.3331 30.1732 14.3331C30.9986 14.3331 31.6679 15.0025 31.6679 15.8281ZM35.9122 17.3455C35.8173 15.3428 35.36 13.5688 33.8932 12.1073C32.432 10.6457 30.6584 10.1883 28.6562 10.0879C26.5926 9.97071 20.4074 9.97071 18.3438 10.0879C16.3472 10.1827 14.5736 10.6401 13.1068 12.1017C11.64 13.5633 11.1882 15.3372 11.0878 17.3399C10.9707 19.4039 10.9707 25.5905 11.0878 27.6545C11.1827 29.6572 11.64 31.4312 13.1068 32.8927C14.5736 34.3543 16.3416 34.8117 18.3438 34.9121C20.4074 35.0293 26.5926 35.0293 28.6562 34.9121C30.6584 34.8173 32.432 34.3599 33.8932 32.8927C35.3544 31.4312 35.8118 29.6572 35.9122 27.6545C36.0293 25.5905 36.0293 19.4095 35.9122 17.3455ZM33.2462 29.8692C32.8112 30.9626 31.969 31.8049 30.8703 32.2456C29.225 32.8983 25.321 32.7477 23.5028 32.7477C21.6846 32.7477 17.775 32.8927 16.1352 32.2456C15.0421 31.8105 14.1999 30.9681 13.7593 29.8692C13.1068 28.2235 13.2574 24.3186 13.2574 22.5C13.2574 20.6814 13.1124 16.7709 13.7593 15.1308C14.1944 14.0374 15.0365 13.1951 16.1352 12.7544C17.7805 12.1017 21.6846 12.2523 23.5028 12.2523C25.321 12.2523 29.2306 12.1073 30.8703 12.7544C31.9635 13.1895 32.8056 14.0319 33.2462 15.1308C33.8988 16.7765 33.7482 20.6814 33.7482 22.5C33.7482 24.3186 33.8988 28.2291 33.2462 29.8692Z" fill="#FFCF23"/>
<circle cx="23" cy="23" r="21.5" stroke="#FFCF23" stroke-width="3"/>
</svg>
